*** Darwin 1x12 ***
Turn = 0.
  012345678901
0 .t..t....t..

Turn = 2.
  012345678901
0 .t..t....t..

Turn = 4.
  012345678901
0 .t..t....t..

Turn = 6.
  012345678901
0 .t..t....t..

*** Darwin 6x18 ***
Turn = 0.
  012345678901234567
0 ..................
1 ............h.....
2 ........h.........
3 ..................
4 ...............h..
5 ...........r......

Turn = 3.
  012345678901234567
0 ............h.....
1 ...............h..
2 ..................
3 ..................
4 ..................
5 ........rr........

*** Darwin 8x12 ***
Turn = 0.
  012345678901
0 h...........
1 ......t....t
2 ............
3 t..f.....rr.
4 .......h....
5 ...t..t..h..
6 h.t......f..
7 ............

Turn = 3.
  012345678901
0 ............
1 ......t....t
2 h...........
3 t..f..r.....
4 t...h.......
5 ...t..t...rr
6 ..t......f..
7 ............

*** Darwin 8x9 ***
Turn = 0.
  012345678
0 ......t.h
1 ........t
2 t........
3 f........
4 .........
5 .........
6 ...t.h...
7 ....f....

Turn = 3.
  012345678
0 ......th.
1 ........t
2 t........
3 t........
4 .........
5 .........
6 ...th....
7 ....f....

*** Darwin 3x9 ***
Turn = 0.
  012345678
0 .hft...fh
1 .....th..
2 .......r.

Turn = 3.
  012345678
0 .ttt...fh
1 .....tt..
2 ....r....

Turn = 6.
  012345678
0 .ttt...fh
1 .....tt..
2 .r.......

Turn = 9.
  012345678
0 .ttt...fh
1 r....tt..
2 .........

*** Darwin 5x3 ***
Turn = 0.
  012
0 .fh
1 .hh
2 .rt
3 rt.
4 ...

Turn = 1.
  012
0 .fh
1 .hh
2 r.t
3 rr.
4 ...

Turn = 2.
  012
0 .fh
1 .hh
2 rrt
3 r..
4 ...

Turn = 3.
  012
0 .fh
1 .rh
2 rrt
3 ...
4 r..

Turn = 4.
  012
0 .rh
1 .rt
2 rrt
3 ...
4 r..

Turn = 5.
  012
0 rrt
1 r.r
2 .rr
3 ...
4 .r.

Turn = 6.
  012
0 rrt
1 r.r
2 .rr
3 ...
4 ..r

Turn = 7.
  012
0 rrr
1 .rr
2 .rr
3 ...
4 ..r

*** Darwin 5x16 ***
Turn = 0.
  0123456789012345
0 .....f..........
1 ................
2 ..r.............
3 ...........hf...
4 ....t........tt.

Turn = 1.
  0123456789012345
0 .....f..........
1 ................
2 ................
3 ..r.........f...
4 ....t......h.tt.

Turn = 2.
  0123456789012345
0 .....f..........
1 ................
2 ................
3 ............f...
4 ..r.t......h.tt.

Turn = 3.
  0123456789012345
0 .....f..........
1 ................
2 ................
3 ............f...
4 ..r.t......h.tt.

Turn = 4.
  0123456789012345
0 .....f..........
1 ................
2 ................
3 ............f...
4 .r..t......h.tt.

Turn = 5.
  0123456789012345
0 .....f..........
1 ................
2 ................
3 ............f...
4 r...t......h.tt.

Turn = 6.
  0123456789012345
0 .....f..........
1 ................
2 ................
3 ............f...
4 r...t......h.tt.

*** Darwin 3x9 ***
Turn = 0.
  012345678
0 .f....hht
1 ..ttr....
2 .r....r..

Turn = 3.
  012345678
0 rr....hht
1 ..ttt....
2 ....r....

*** Darwin 2x6 ***
Turn = 0.
  012345
0 .ff..h
1 f.t...

Turn = 2.
  012345
0 .fth..
1 f.t...

Turn = 4.
  012345
0 .ftt..
1 f.t...

Turn = 6.
  012345
0 .ftt..
1 f.t...

Turn = 8.
  012345
0 .ttt..
1 f.t...

*** Darwin 2x18 ***
Turn = 0.
  012345678901234567
0 ..r...............
1 ...r..............

Turn = 5.
  012345678901234567
0 ..................
1 r.......r.........

*** Darwin 2x15 ***
Turn = 0.
  012345678901234
0 ........f......
1 ..f.t.....h....

Turn = 1.
  012345678901234
0 ........f......
1 ..f.t....h.....

Turn = 2.
  012345678901234
0 ........f......
1 ..f.t...h......

*** Darwin 8x7 ***
Turn = 0.
  0123456
0 ....h..
1 r.....h
2 .......
3 hfr....
4 .......
5 ..h....
6 .......
7 ......f

Turn = 2.
  0123456
0 r......
1 h...h..
2 ....h..
3 .f.....
4 .......
5 h.r....
6 .......
7 ......f

Turn = 4.
  0123456
0 h.r....
1 ..h....
2 .......
3 .f.....
4 ....h..
5 h......
6 .......
7 ..r...f

*** Darwin 10x2 ***
Turn = 0.
  01
0 .f
1 ..
2 f.
3 .r
4 ..
5 ..
6 .r
7 ..
8 ..
9 ..

Turn = 3.
  01
0 .r
1 .r
2 f.
3 ..
4 ..
5 ..
6 ..
7 ..
8 .r
9 ..

Turn = 6.
  01
0 .r
1 r.
2 f.
3 ..
4 ..
5 ..
6 ..
7 ..
8 ..
9 r.

*** Darwin 3x15 ***
Turn = 0.
  012345678901234
0 ...............
1 .....h.........
2 ...............

Turn = 2.
  012345678901234
0 .....h.........
1 ...............
2 ...............

Turn = 4.
  012345678901234
0 .....h.........
1 ...............
2 ...............

*** Darwin 1x14 ***
Turn = 0.
  01234567890123
0 ..f.r.....r.th

Turn = 1.
  01234567890123
0 ..f..r.....rth

Turn = 2.
  01234567890123
0 ..f...r....rrh

Turn = 3.
  01234567890123
0 ..f....r...rrh

*** Darwin 3x9 ***
Turn = 0.
  012345678
0 ..f.h...f
1 .trhr.r..
2 fh.hh....

Turn = 1.
  012345678
0 ..f.h...f
1 .tthr..r.
2 fh.h.r...

*** Darwin 10x14 ***
Turn = 0.
  01234567890123
0 ..............
1 ..............
2 ..........h...
3 ..............
4 ..............
5 ..............
6 r....t........
7 ..............
8 ..............
9 ..............

Turn = 2.
  01234567890123
0 ..............
1 ..............
2 ............h.
3 ..............
4 ..............
5 ..............
6 .....t........
7 ..............
8 r.............
9 ..............

*** Darwin 1x18 ***
Turn = 0.
  012345678901234567
0 t.r......h..t.t...

Turn = 1.
  012345678901234567
0 t.r.......h.t.t...

Turn = 2.
  012345678901234567
0 t..r.......tt.t...

Turn = 3.
  012345678901234567
0 t...r......tt.t...

Turn = 4.
  012345678901234567
0 t....r.....tt.t...

Turn = 5.
  012345678901234567
0 t.....r....tt.t...

*** Darwin 4x14 ***
Turn = 0.
  01234567890123
0 t..f..........
1 ...r.......h..
2 hf..r....ht...
3 .....r...h..r.

Turn = 1.
  01234567890123
0 t..f..........
1 ..r......ht...
2 hf.......ht...
3 ....r.r....r..

Turn = 2.
  01234567890123
0 t..f.....h....
1 .r.......ht...
2 hf........t...
3 ....r..r..r...

Turn = 3.
  01234567890123
0 t..f.....h....
1 r........ht...
2 hf........t...
3 ...r....rr....

Turn = 4.
  01234567890123
0 t..f.....h....
1 r........ht...
2 hf........t...
3 ..r.....rr....

Turn = 5.
  01234567890123
0 t..f.....h....
1 rr.......ht...
2 r........rt...
3 .r......r.....

*** Darwin 3x7 ***
Turn = 0.
  0123456
0 .h....t
1 .rt.r.t
2 rt.....

Turn = 3.
  0123456
0 .h....t
1 r.tt..t
2 rr.....

Turn = 6.
  0123456
0 .h....t
1 .rtt..t
2 rr.....
