*** Darwin 8x8 ***
Turn = 0.
  01234567
0 f.......
1 .f......
2 ........
3 ...h....
4 ...h....
5 .....r..
6 ........
7 ........

Turn = 1.
  01234567
0 f.......
1 .f......
2 ........
3 ....h...
4 ....h...
5 ....r...
6 ........
7 ........

Turn = 2.
  01234567
0 f.......
1 .f......
2 ........
3 .....h..
4 .....h..
5 ...r....
6 ........
7 ........

Turn = 3.
  01234567
0 f.......
1 .f......
2 ........
3 ......h.
4 ......h.
5 ..r.....
6 ........
7 ........

Turn = 4.
  01234567
0 f.......
1 .f......
2 ........
3 .......h
4 .......h
5 .r......
6 ........
7 ........

Turn = 5.
  01234567
0 f.......
1 .f......
2 ........
3 .......h
4 .......h
5 r.......
6 ........
7 ........

*** Darwin 7x5 ***
Turn = 0.
  01234
0 f....
1 .....
2 ..h..
3 ..r..
4 .hf.h
5 .....
6 .rf..

Turn = 2.
  01234
0 f.h..
1 .....
2 ....h
3 ..r..
4 .rr..
5 .....
6 r.f..

Turn = 4.
  01234
0 f.h.h
1 .....
2 ..r..
3 ....r
4 .....
5 r....
6 .rf..

*** Darwin 5x8 ***
Turn = 0.
  01234567
0 .ff...f.
1 ........
2 ....h.t.
3 ...h....
4 .....h..

Turn = 4.
  01234567
0 .ff.h.f.
1 ........
2 ......t.
3 h.......
4 .......h

Turn = 8.
  01234567
0 .ff.h.f.
1 ........
2 ......t.
3 h.......
4 .......h

Turn = 12.
  01234567
0 .ff.h.f.
1 ........
2 ......t.
3 h.......
4 .......h

*** Darwin 6x7 ***
Turn = 0.
  0123456
0 ht...r.
1 ...f...
2 ....r.t
3 ...ff..
4 .......
5 ......h

Turn = 2.
  0123456
0 .t....r
1 ...f...
2 h.r...t
3 ...ff.h
4 .......
5 .......

Turn = 4.
  0123456
0 .t.....
1 ...f..r
2 r.....r
3 ...ff.r
4 h......
5 .......

Turn = 6.
  0123456
0 .t.....
1 r..f.r.
2 .....r.
3 ...frr.
4 .......
5 h......

Turn = 8.
  0123456
0 rt.....
1 ...rr..
2 ...r...
3 ...rr..
4 .......
5 h...r..

Turn = 10.
  0123456
0 rr.rr..
1 .......
2 .r.....
3 .......
4 ...rr..
5 h..r...

Turn = 12.
  0123456
0 rrrr...
1 .......
2 r......
3 .......
4 ....r..
5 hr..r..

Turn = 14.
  0123456
0 rr.....
1 ..rr...
2 .......
3 .......
4 r.....r
5 rrr....

*** Darwin 8x8 ***
Turn = 0.
  01234567
0 ...rh...
1 ........
2 ....f...
3 ..h..h..
4 ........
5 ..f.....
6 ........
7 t.......

Turn = 1.
  01234567
0 ..r.h...
1 ........
2 ....f...
3 ....h...
4 ..h.....
5 ..f.....
6 ........
7 t.......

Turn = 2.
  01234567
0 .r..h...
1 ........
2 ....f...
3 ...h....
4 ..h.....
5 ..f.....
6 ........
7 t.......

Turn = 3.
  01234567
0 r...h...
1 ........
2 ....f...
3 ..h.....
4 ..h.....
5 ..f.....
6 ........
7 t.......

Turn = 4.
  01234567
0 r...h...
1 ........
2 ....f...
3 .h......
4 ..h.....
5 ..f.....
6 ........
7 t.......

Turn = 5.
  01234567
0 r...h...
1 ........
2 ....f...
3 h.......
4 ..h.....
5 ..f.....
6 ........
7 t.......

Turn = 6.
  01234567
0 r...h...
1 ........
2 ....f...
3 h.......
4 ..h.....
5 ..f.....
6 ........
7 t.......

Turn = 7.
  01234567
0 r...h...
1 ........
2 ....f...
3 h.......
4 ..h.....
5 ..f.....
6 ........
7 t.......

Turn = 8.
  01234567
0 .r..h...
1 ........
2 ....f...
3 h.......
4 ..h.....
5 ..f.....
6 ........
7 t.......

Turn = 9.
  01234567
0 ..r.h...
1 ........
2 ....f...
3 h.......
4 ..h.....
5 ..f.....
6 ........
7 t.......

Turn = 10.
  01234567
0 ...rh...
1 ........
2 ....f...
3 h.......
4 ..h.....
5 ..f.....
6 ........
7 t.......

Turn = 11.
  01234567
0 ...rr...
1 ........
2 ....f...
3 h.......
4 ..h.....
5 ..f.....
6 ........
7 t.......

Turn = 12.
  01234567
0 ...r.r..
1 ........
2 ....f...
3 h.......
4 ..h.....
5 ..f.....
6 ........
7 t.......

Turn = 13.
  01234567
0 ......r.
1 ...r....
2 ....f...
3 h.......
4 ..h.....
5 ..f.....
6 ........
7 t.......

Turn = 14.
  01234567
0 .......r
1 ........
2 ...rf...
3 h.......
4 ..h.....
5 ..f.....
6 ........
7 t.......

Turn = 15.
  01234567
0 .......r
1 ........
2 ....f...
3 h..r....
4 ..h.....
5 ..f.....
6 ........
7 t.......

Turn = 16.
  01234567
0 .......r
1 ........
2 ....f...
3 h.......
4 ..hr....
5 ..f.....
6 ........
7 t.......

Turn = 17.
  01234567
0 ......r.
1 ........
2 ....f...
3 h.......
4 ..h.....
5 ..fr....
6 ........
7 t.......

Turn = 18.
  01234567
0 .....r..
1 ........
2 ....f...
3 h.......
4 ..h.....
5 ..f.....
6 ...r....
7 t.......

Turn = 19.
  01234567
0 ....r...
1 ........
2 ....f...
3 h.......
4 ..h.....
5 ..f.....
6 ........
7 t..r....

Turn = 20.
  01234567
0 ...r....
1 ........
2 ....f...
3 h.......
4 ..h.....
5 ..f.....
6 ........
7 t..r....

Turn = 21.
  01234567
0 ..r.....
1 ........
2 ....f...
3 h.......
4 ..h.....
5 ..f.....
6 ........
7 t.r.....

Turn = 22.
  01234567
0 .r......
1 ........
2 ....f...
3 h.......
4 ..h.....
5 ..f.....
6 ........
7 tr......

Turn = 23.
  01234567
0 r.......
1 ........
2 ....f...
3 h.......
4 ..h.....
5 ..f.....
6 ........
7 rr......

Turn = 24.
  01234567
0 r.......
1 ........
2 ....f...
3 h.......
4 ..h.....
5 ..f.....
6 ........
7 rr......

Turn = 25.
  01234567
0 r.......
1 ........
2 ....f...
3 h.......
4 ..h.....
5 ..f.....
6 rr......
7 ........

*** Darwin 7x7 ***
Turn = 0.
  0123456
0 f......
1 r......
2 .......
3 .......
4 t......
5 .ftr...
6 ...h...

Turn = 5.
  0123456
0 f..r...
1 .......
2 .......
3 .......
4 .......
5 rtt....
6 r..h...

Turn = 10.
  0123456
0 rr.....
1 .......
2 r......
3 .......
4 .......
5 .tt....
6 .t.h...

*** Darwin 9x9 ***
Turn = 0.
  012345678
0 ..f.r....
1 ...tf....
2 ....r....
3 ...r...h.
4 ........h
5 ..r.....t
6 .f.......
7 .........
8 .f.......

Turn = 1.
  012345678
0 ..f..r...
1 ...tf....
2 .........
3 ....r...h
4 ..rr....h
5 ........t
6 .f.......
7 .........
8 .f.......

Turn = 2.
  012345678
0 ..f...r..
1 ...tf....
2 .........
3 ..r.....h
4 ....r...h
5 ...r....t
6 .f.......
7 .........
8 .f.......

Turn = 3.
  012345678
0 ..f....r.
1 ...tt....
2 ..r......
3 ........h
4 ........h
5 ....r...t
6 .f.r.....
7 .........
8 .f.......

Turn = 4.
  012345678
0 ..f.....r
1 ..rtt....
2 .........
3 ........h
4 ........t
5 ........t
6 .f..r....
7 ...r.....
8 .f.......

Turn = 5.
  012345678
0 ..r.....r
1 ..rtt....
2 .........
3 ........h
4 ........t
5 ........t
6 .f.......
7 ....r....
8 .f.r.....

Turn = 6.
  012345678
0 ..r......
1 ..ttt...r
2 .........
3 ........t
4 ........t
5 ........t
6 .f.......
7 .........
8 .f.rr....

Turn = 7.
  012345678
0 .r.......
1 ..ttt....
2 ........r
3 ........t
4 ........t
5 ........t
6 .f.......
7 .........
8 .fr.r....

Turn = 8.
  012345678
0 r........
1 ..ttt....
2 ........r
3 ........r
4 ........t
5 ........t
6 .f.......
7 .........
8 .rrr.....

Turn = 9.
  012345678
0 r........
1 ..ttt....
2 ........r
3 ........r
4 ........t
5 ........t
6 .f.......
7 .r.......
8 .rr......

Turn = 10.
  012345678
0 .........
1 r.ttt....
2 ........r
3 ........r
4 ........r
5 ........t
6 .r.......
7 .r.......
8 rr.......

*** Darwin 7x7 ***
Turn = 0.
  0123456
0 .......
1 ..t.r..
2 r.f....
3 .r...t.
4 .t.....
5 ......t
6 ......h

Turn = 3.
  0123456
0 r......
1 ..t...r
2 ..f....
3 .....t.
4 rt.....
5 ......t
6 ......t

Turn = 6.
  0123456
0 ..r....
1 ..t....
2 ..t....
3 .....t.
4 .t....t
5 ......t
6 r.....t

Turn = 9.
  0123456
0 .....r.
1 ..t....
2 ..t....
3 .....t.
4 rt....t
5 ......t
6 ......t

Turn = 12.
  0123456
0 ......r
1 r.t....
2 ..t....
3 .....t.
4 .t....t
5 ......t
6 ......t

*** Darwin 8x8 ***
Turn = 0.
  01234567
0 ..t..f..
1 ........
2 ...r.r..
3 ........
4 ........
5 .....h..
6 ........
7 ........

Turn = 4.
  01234567
0 ..t..f..
1 ........
2 .......r
3 ........
4 ........
5 .h......
6 .....r..
7 ........

Turn = 8.
  01234567
0 ..t..f..
1 ........
2 ........
3 ........
4 ........
5 h......r
6 ........
7 .......r

Turn = 12.
  01234567
0 ..t..f..
1 ........
2 ........
3 ........
4 ........
5 h.......
6 .....r..
7 .....r..

*** Darwin 6x6 ***
Turn = 0.
  012345
0 ......
1 .f..t.
2 ..t...
3 ..f...
4 ..h...
5 .fr...

Turn = 1.
  012345
0 ......
1 .f..t.
2 ..t...
3 ..f...
4 .h....
5 .f.r..

Turn = 2.
  012345
0 ......
1 .f..t.
2 ..t...
3 ..f...
4 h.....
5 .f..r.

Turn = 3.
  012345
0 ......
1 .f..t.
2 ..t...
3 ..f...
4 h.....
5 .f...r

Turn = 4.
  012345
0 ......
1 .f..t.
2 ..t...
3 ..t...
4 h.....
5 .f...r

Turn = 5.
  012345
0 ......
1 .f..t.
2 ..t...
3 ..t...
4 h.....
5 .f...r

Turn = 6.
  012345
0 ......
1 .f..t.
2 ..t...
3 ..t...
4 h.....
5 .f...r

Turn = 7.
  012345
0 ......
1 .f..t.
2 ..t...
3 ..t...
4 h.....
5 .f...r

Turn = 8.
  012345
0 ......
1 .f..t.
2 ..t...
3 ..t...
4 h.....
5 .f..r.

Turn = 9.
  012345
0 ......
1 .f..t.
2 ..t...
3 ..t...
4 h.....
5 .f.r..

Turn = 10.
  012345
0 ......
1 .f..t.
2 ..t...
3 ..t...
4 h.....
5 .fr...

*** Darwin 7x7 ***
Turn = 0.
  0123456
0 .r.....
1 .f.....
2 ....r..
3 .....t.
4 ....f..
5 .......
6 .......

Turn = 3.
  0123456
0 r...r..
1 .......
2 .r.....
3 .....t.
4 ....f..
5 .......
6 .......

Turn = 6.
  0123456
0 .rr....
1 .......
2 .......
3 .....t.
4 ....f..
5 .r.....
6 .......

Turn = 9.
  0123456
0 ....r..
1 .......
2 .......
3 .r...t.
4 ....f..
5 .......
6 ..r....

*** Darwin 6x6 ***
Turn = 0.
  012345
0 ......
1 .h...h
2 ..t.t.
3 ...r..
4 ....f.
5 ......

Turn = 3.
  012345
0 ......
1 ..h...
2 ..t.t.
3 ......
4 .h..f.
5 ...r..

Turn = 6.
  012345
0 ......
1 h.....
2 ..t.t.
3 ......
4 ....f.
5 .rr...

Turn = 9.
  012345
0 ......
1 h.....
2 ..r.t.
3 ..r...
4 ....f.
5 r.....

Turn = 12.
  012345
0 ..r...
1 h.....
2 r...t.
3 r.....
4 ....f.
5 ......

Turn = 15.
  012345
0 r.....
1 h.....
2 ....t.
3 r.r...
4 ....f.
5 ......

*** Darwin 10x10 ***
Turn = 0.
  0123456789
0 ..........
1 ..........
2 ..........
3 ...th.f...
4 ..........
5 ..........
6 .......r..
7 ..........
8 .....f....
9 .........t

Turn = 1.
  0123456789
0 ..........
1 ..........
2 ..........
3 ...t.hf...
4 ..........
5 .......r..
6 ..........
7 ..........
8 .....f....
9 .........t

Turn = 2.
  0123456789
0 ..........
1 ..........
2 ..........
3 ...t.hf...
4 .......r..
5 ..........
6 ..........
7 ..........
8 .....f....
9 .........t

Turn = 3.
  0123456789
0 ..........
1 ..........
2 ..........
3 ...t.hfr..
4 ..........
5 ..........
6 ..........
7 ..........
8 .....f....
9 .........t

Turn = 4.
  0123456789
0 ..........
1 ..........
2 .......r..
3 ...t.hf...
4 ..........
5 ..........
6 ..........
7 ..........
8 .....f....
9 .........t

Turn = 5.
  0123456789
0 ..........
1 .......r..
2 ..........
3 ...t.hf...
4 ..........
5 ..........
6 ..........
7 ..........
8 .....f....
9 .........t

Turn = 6.
  0123456789
0 .......r..
1 ..........
2 ..........
3 ...t.hf...
4 ..........
5 ..........
6 ..........
7 ..........
8 .....f....
9 .........t

Turn = 7.
  0123456789
0 .......r..
1 ..........
2 ..........
3 ...t.hf...
4 ..........
5 ..........
6 ..........
7 ..........
8 .....f....
9 .........t

Turn = 8.
  0123456789
0 ........r.
1 ..........
2 ..........
3 ...t.hf...
4 ..........
5 ..........
6 ..........
7 ..........
8 .....f....
9 .........t

Turn = 9.
  0123456789
0 .........r
1 ..........
2 ..........
3 ...t.hf...
4 ..........
5 ..........
6 ..........
7 ..........
8 .....f....
9 .........t

Turn = 10.
  0123456789
0 .........r
1 ..........
2 ..........
3 ...t.hf...
4 ..........
5 ..........
6 ..........
7 ..........
8 .....f....
9 .........t

Turn = 11.
  0123456789
0 .........r
1 ..........
2 ..........
3 ...t.hf...
4 ..........
5 ..........
6 ..........
7 ..........
8 .....f....
9 .........t

Turn = 12.
  0123456789
0 .........r
1 ..........
2 ..........
3 ...t.hf...
4 ..........
5 ..........
6 ..........
7 ..........
8 .....f....
9 .........t

Turn = 13.
  0123456789
0 ..........
1 .........r
2 ..........
3 ...t.hf...
4 ..........
5 ..........
6 ..........
7 ..........
8 .....f....
9 .........t

Turn = 14.
  0123456789
0 ..........
1 ..........
2 .........r
3 ...t.hf...
4 ..........
5 ..........
6 ..........
7 ..........
8 .....f....
9 .........t

Turn = 15.
  0123456789
0 ..........
1 ..........
2 ..........
3 ...t.hf..r
4 ..........
5 ..........
6 ..........
7 ..........
8 .....f....
9 .........t

Turn = 16.
  0123456789
0 ..........
1 ..........
2 ..........
3 ...t.hf...
4 .........r
5 ..........
6 ..........
7 ..........
8 .....f....
9 .........t

Turn = 17.
  0123456789
0 ..........
1 ..........
2 ..........
3 ...t.hf...
4 ..........
5 .........r
6 ..........
7 ..........
8 .....f....
9 .........t

Turn = 18.
  0123456789
0 ..........
1 ..........
2 ..........
3 ...t.hf...
4 ..........
5 ..........
6 .........r
7 ..........
8 .....f....
9 .........t

Turn = 19.
  0123456789
0 ..........
1 ..........
2 ..........
3 ...t.hf...
4 ..........
5 ..........
6 ..........
7 .........r
8 .....f....
9 .........t

Turn = 20.
  0123456789
0 ..........
1 ..........
2 ..........
3 ...t.hf...
4 ..........
5 ..........
6 ..........
7 ..........
8 .....f...r
9 .........t

*** Darwin 9x9 ***
Turn = 0.
  012345678
0 ..f......
1 .fh.....h
2 .........
3 .........
4 ....r.t..
5 .........
6 ......t..
7 .........
8 .........

Turn = 2.
  012345678
0 ..f......
1 .f..h...h
2 .........
3 .........
4 ......t..
5 .........
6 ....r.t..
7 .........
8 .........

Turn = 4.
  012345678
0 ..f......
1 .f....h.h
2 .........
3 .........
4 ......t..
5 .........
6 ......t..
7 .........
8 ....r....

Turn = 6.
  012345678
0 ..f......
1 .f.....hh
2 .........
3 .........
4 ......t..
5 .........
6 ......t..
7 .........
8 ...r.....

Turn = 8.
  012345678
0 ..f......
1 .f.....hh
2 .........
3 .........
4 ......t..
5 .........
6 ......t..
7 .........
8 .r.......

Turn = 10.
  012345678
0 ..f......
1 .f.....hh
2 .........
3 .........
4 ......t..
5 .........
6 ......t..
7 .........
8 r........

*** Darwin 8x8 ***
Turn = 0.
  01234567
0 h..r.r..
1 ....r.t.
2 f.......
3 .r..rrf.
4 ..th....
5 .....h..
6 .f.h..r.
7 .....f.f

Turn = 1.
  01234567
0 ...r..t.
1 h....rt.
2 f.......
3 ...r..f.
4 .rth.r..
5 ......h.
6 .f..hr..
7 .....f.f

Turn = 2.
  01234567
0 ....r.r.
1 h....rr.
2 f.......
3 ..r...f.
4 ..tt....
5 .r...r.h
6 .f..rr..
7 .....f.f

Turn = 3.
  01234567
0 .....rr.
1 h....rr.
2 f.......
3 .r....f.
4 ..tt....
5 .r...r.h
6 .r..rr..
7 .....f.f

Turn = 4.
  01234567
0 .....rr.
1 h......r
2 f....r..
3 r.....f.
4 ..tt....
5 .r..r..h
6 ..r.rr..
7 ....r..f

Turn = 5.
  01234567
0 ......r.
1 h....r.r
2 f.......
3 r....rf.
4 ..tt....
5 ..rr...h
6 ...rr...
7 ...r.r.f

*** Darwin 5x5 ***
Turn = 0.
  01234
0 .....
1 ..r.f
2 .t...
3 .r.h.
4 t....

Turn = 1.
  01234
0 .....
1 ...rf
2 .t.h.
3 .t...
4 t....

Turn = 2.
  01234
0 ....r
1 ...r.
2 .t.h.
3 .t...
4 t....

Turn = 3.
  01234
0 ....r
1 ...hr
2 .t...
3 .t...
4 t....

Turn = 4.
  01234
0 ...hr
1 ....r
2 .t...
3 .t...
4 t....

Turn = 5.
  01234
0 ...hr
1 .....
2 .t..r
3 .t...
4 t....

*** Darwin 8x8 ***
Turn = 0.
  01234567
0 f.......
1 ...t.r..
2 ..r...t.
3 .t.f....
4 ........
5 .....r..
6 ....h...
7 .......h

Turn = 3.
  01234567
0 f.......
1 ...tt...
2 .t...rt.
3 .t.f....
4 ........
5 ........
6 .......h
7 .......h

Turn = 6.
  01234567
0 f....r..
1 ...tt...
2 .t....t.
3 .t.f....
4 ........
5 ........
6 .......h
7 .......h

Turn = 9.
  01234567
0 f......r
1 ...tt...
2 .t....t.
3 .t.f....
4 ........
5 ........
6 .......h
7 .......h

Turn = 12.
  01234567
0 f.......
1 ...tt..r
2 .t....t.
3 .t.f....
4 ........
5 ........
6 .......h
7 .......h

Turn = 15.
  01234567
0 f.......
1 ...tt...
2 .t....tt
3 .t.f....
4 ........
5 ........
6 .......h
7 .......h

*** Darwin 8x8 ***
Turn = 0.
  01234567
0 ........
1 ..f.....
2 ..t...h.
3 ...f..f.
4 ........
5 h..h.r..
6 .......r
7 .......r

Turn = 1.
  01234567
0 ........
1 ..f.....
2 ..t...h.
3 ...f..f.
4 h.......
5 ..h....r
6 .....r..
7 .......r

Turn = 2.
  01234567
0 ........
1 ..t.....
2 ..t...h.
3 h..f..f.
4 .......r
5 .h......
6 ........
7 .....rr.

Turn = 3.
  01234567
0 ........
1 ..t.....
2 h.t...h.
3 ...f..fr
4 ........
5 h.......
6 ........
7 .....rr.

Turn = 4.
  01234567
0 ........
1 h.t.....
2 ..t...hr
3 ...f..f.
4 ........
5 h.......
6 ......r.
7 .....r..

Turn = 5.
  01234567
0 h.......
1 ..t....r
2 ..t...h.
3 ...f..f.
4 ........
5 h.....r.
6 ........
7 .....r..

Turn = 6.
  01234567
0 h......r
1 ..t.....
2 ..t...h.
3 ...f..f.
4 ......r.
5 h.......
6 ........
7 ....r...

Turn = 7.
  01234567
0 h......r
1 ..t.....
2 ..t...h.
3 ...f..r.
4 ......r.
5 h.......
6 ........
7 ...r....

Turn = 8.
  01234567
0 h......r
1 ..t.....
2 ..t...h.
3 ...f..r.
4 ......r.
5 h.......
6 ........
7 ..r.....

Turn = 9.
  01234567
0 h......r
1 ..t.....
2 ..t...h.
3 ...f...r
4 .......r
5 h.......
6 ........
7 .r......

Turn = 10.
  01234567
0 h......r
1 ..t.....
2 ..t.....
3 ...f..hr
4 .......r
5 h.......
6 ........
7 r.......

*** Darwin 7x7 ***
Turn = 0.
  0123456
0 f...h..
1 ....t.f
2 .f.....
3 ......f
4 ..h....
5 ...r.t.
6 ......f

Turn = 1.
  0123456
0 f....h.
1 ....t.f
2 .f.....
3 ......f
4 .h.....
5 .....t.
6 ...r..f

Turn = 2.
  0123456
0 f.....h
1 ....t.f
2 .f.....
3 ......f
4 h......
5 .....t.
6 ...r..f

Turn = 3.
  0123456
0 f.....h
1 ....t.f
2 .f.....
3 ......f
4 h......
5 .....t.
6 ..r...f

Turn = 4.
  0123456
0 f.....h
1 ....t.f
2 .f.....
3 ......f
4 h......
5 .....t.
6 .r....f

Turn = 5.
  0123456
0 f.....h
1 ....t.f
2 .f.....
3 ......f
4 h......
5 .....t.
6 r.....f

Turn = 6.
  0123456
0 f.....h
1 ....t.f
2 .f.....
3 ......f
4 h......
5 .....t.
6 r.....f

Turn = 7.
  0123456
0 f.....h
1 ....t.f
2 .f.....
3 ......f
4 h......
5 .....t.
6 r.....f

Turn = 8.
  0123456
0 f.....h
1 ....t.f
2 .f.....
3 ......f
4 h......
5 .....t.
6 r.....f

Turn = 9.
  0123456
0 f.....h
1 ....t.f
2 .f.....
3 ......f
4 h......
5 r....t.
6 ......f

Turn = 10.
  0123456
0 f.....h
1 ....t.f
2 .f.....
3 ......f
4 r......
5 r....t.
6 ......f

Turn = 11.
  0123456
0 f.....h
1 ....t.f
2 .f.....
3 ......f
4 r......
5 r....t.
6 ......f

Turn = 12.
  0123456
0 f.....h
1 ....t.f
2 .f.....
3 r.....f
4 .......
5 .r...t.
6 ......f

Turn = 13.
  0123456
0 f.....h
1 ....t.f
2 rf.....
3 ......f
4 .......
5 ..r..t.
6 ......f

Turn = 14.
  0123456
0 f.....h
1 r...t.f
2 .f.....
3 ......f
4 .......
5 ...r.t.
6 ......f

Turn = 15.
  0123456
0 r.....h
1 r...t.f
2 .f.....
3 ......f
4 .......
5 ....tt.
6 ......f

*** Darwin 8x13 ***
Turn = 0.
  0123456789012
0 .............
1 .............
2 ..........f..
3 ...........f.
4 h............
5 ....h.......f
6 .r.r......t..
7 r....h.......

Turn = 1.
  0123456789012
0 .............
1 .............
2 ..........f..
3 ...........f.
4 .h..h........
5 .r..........f
6 ..........t..
7 .r.r.h.......

Turn = 2.
  0123456789012
0 .............
1 .............
2 ..........f..
3 ....h......f.
4 .rh..........
5 ............f
6 ..........t..
7 ..rr.h.......

Turn = 3.
  0123456789012
0 .............
1 .............
2 ....h.....f..
3 .r.........f.
4 ...h.........
5 ............f
6 ..........t..
7 ..rr.h.......

Turn = 4.
  0123456789012
0 .............
1 ....h........
2 .r........f..
3 ...........f.
4 ....h........
5 ............f
6 ..rr......t..
7 .....h.......

Turn = 5.
  0123456789012
0 ....h........
1 .r...........
2 ..........f..
3 ...........f.
4 .....h.......
5 ..rr........f
6 ..........t..
7 .....h.......

Turn = 6.
  0123456789012
0 .r..h........
1 .............
2 ..........f..
3 ...........f.
4 ..rr..h......
5 ............f
6 ..........t..
7 .....h.......

Turn = 7.
  0123456789012
0 .r..h........
1 .............
2 ..........f..
3 ..rr.......f.
4 .......h.....
5 ............f
6 ..........t..
7 .....h.......

Turn = 8.
  0123456789012
0 ..r.h........
1 .............
2 ..rr......f..
3 ...........f.
4 ........h....
5 ............f
6 ..........t..
7 .....h.......

Turn = 9.
  0123456789012
0 ...rh........
1 ..rr.........
2 ..........f..
3 ...........f.
4 .........h...
5 ............f
6 ..........t..
7 .....h.......

Turn = 10.
  0123456789012
0 ..rrr........
1 ...r.........
2 ..........f..
3 ...........f.
4 ..........h..
5 ............f
6 ..........t..
7 .....h.......

Turn = 11.
  0123456789012
0 ..rr.r.......
1 ....r........
2 ..........f..
3 ...........f.
4 ...........h.
5 ............f
6 ..........t..
7 .....h.......

Turn = 12.
  0123456789012
0 .r.r..r......
1 .....r.......
2 ..........f..
3 ...........f.
4 ............h
5 ............f
6 ..........t..
7 .....h.......

Turn = 13.
  0123456789012
0 r...r..r.....
1 ......r......
2 ..........f..
3 ...........f.
4 ............h
5 ............f
6 ..........t..
7 .....h.......

Turn = 14.
  0123456789012
0 r....r..r....
1 .......r.....
2 ..........f..
3 ...........f.
4 ............h
5 ............f
6 ..........t..
7 .....h.......

Turn = 15.
  0123456789012
0 r.....r..r...
1 ........r....
2 ..........f..
3 ...........f.
4 ............h
5 ............f
6 ..........t..
7 .....h.......

Turn = 16.
  0123456789012
0 r......r..r..
1 .........r...
2 ..........f..
3 ...........f.
4 ............h
5 ............f
6 ..........t..
7 .....h.......

Turn = 17.
  0123456789012
0 r.......r..r.
1 ..........r..
2 ..........f..
3 ...........f.
4 ............h
5 ............f
6 ..........t..
7 .....h.......

Turn = 18.
  0123456789012
0 r........r..r
1 ...........r.
2 ..........f..
3 ...........f.
4 ............h
5 ............f
6 ..........t..
7 .....h.......

Turn = 19.
  0123456789012
0 r.........r.r
1 ............r
2 ..........f..
3 ...........f.
4 ............h
5 ............f
6 ..........t..
7 .....h.......

Turn = 20.
  0123456789012
0 .r.........rr
1 ............r
2 ..........f..
3 ...........f.
4 ............h
5 ............f
6 ..........t..
7 .....h.......

Turn = 21.
  0123456789012
0 ..r........rr
1 ............r
2 ..........f..
3 ...........f.
4 ............h
5 ............f
6 ..........t..
7 .....h.......
