25

8 7
7
f 1 0 w
t 5 3 w
t 2 3 e
f 3 2 n
f 0 5 e
t 4 6 s
f 6 4 n
5 1

8 9
10
t 0 3 n
f 5 2 n
h 5 2 e
r 4 3 s
r 5 0 w
r 2 7 e
r 2 0 w
r 3 3 n
f 3 3 s
f 1 3 n
5 4

6 7
6
r 2 2 e
t 5 0 n
h 1 5 s
r 2 2 s
r 1 4 w
r 5 6 w
5 4

10 7
8
f 6 4 n
r 2 2 e
r 6 2 n
f 6 6 n
t 7 3 w
r 7 4 n
r 7 1 e
h 6 4 n
5 3

6 10
8
f 2 3 n
h 5 9 s
t 4 4 e
t 3 6 w
f 4 9 n
r 0 8 s
t 3 3 n
t 5 1 s
5 1

9 9
10
r 6 1 n
f 8 0 e
f 2 3 n
t 0 3 s
h 0 3 n
h 8 1 n
t 2 5 s
t 0 4 s
t 2 3 e
h 1 4 e
5 2

7 8
8
f 6 1 e
h 0 3 e
f 4 6 e
f 6 7 n
r 4 0 s
h 5 1 n
r 3 6 s
f 0 5 s
5 3

10 9
5
t 0 2 e
f 9 5 s
t 4 2 n
h 5 0 s
h 3 3 e
5 2

8 5
9
t 3 0 n
h 3 4 s
r 0 2 s
r 2 0 w
f 2 1 e
f 7 1 e
h 3 0 s
t 0 0 s
r 0 2 s
5 4

9 6
9
f 5 4 w
r 1 5 n
r 0 0 w
h 2 0 s
f 3 3 n
h 8 5 w
f 8 0 e
t 6 1 w
f 7 5 w
5 4

10 6
9
t 8 4 e
f 2 3 w
h 6 0 n
h 9 5 s
f 2 4 w
f 4 5 s
h 7 3 w
r 5 0 s
f 1 4 n
5 3

9 7
7
h 6 5 e
r 1 4 n
r 1 0 n
t 2 6 w
r 4 2 s
t 2 0 e
h 0 5 s
5 1

7 8
6
h 4 5 e
r 3 7 e
t 4 0 e
t 2 6 n
r 2 7 s
r 2 6 n
5 3

10 7
7
f 5 3 w
f 0 4 s
t 7 5 w
t 2 5 n
r 2 1 e
h 7 4 s
r 3 0 e
5 3

5 7
7
t 1 5 n
r 3 1 s
f 4 3 e
f 0 1 s
t 3 1 n
t 0 6 s
r 0 1 e
5 4

7 5
6
h 0 3 n
r 1 0 n
h 5 4 s
h 5 3 w
h 1 0 e
r 2 4 s
5 2

9 10
8
r 7 5 w
h 1 8 s
r 3 6 e
t 3 3 w
f 8 0 e
h 2 1 n
r 8 4 n
f 2 3 e
5 4

8 10
8
r 0 7 w
f 0 6 e
t 2 3 e
f 6 2 s
r 1 7 w
f 1 8 n
h 1 2 w
h 6 2 s
5 4

5 7
10
r 4 0 w
t 4 0 w
r 4 4 w
h 1 5 s
t 1 1 w
r 0 1 n
t 2 4 s
t 2 5 n
f 2 1 w
h 4 6 n
5 4

8 6
7
r 5 3 w
r 0 3 n
h 4 1 w
t 1 5 n
f 6 1 s
r 0 1 s
r 7 4 s
5 1

6 6
6
r 1 3 n
t 5 0 w
h 5 5 s
t 2 0 e
f 5 1 s
t 2 4 e
5 2

7 6
9
h 0 0 w
t 5 0 e
t 6 5 w
r 6 0 w
h 1 5 w
r 2 4 w
f 5 2 n
r 1 0 n
r 5 5 e
5 4

5 6
10
t 1 0 w
h 1 0 e
t 1 0 w
t 0 4 s
h 1 1 e
f 2 4 e
r 1 0 w
f 0 4 n
h 1 5 n
h 4 5 e
5 1

5 5
6
t 1 3 n
r 1 0 n
f 4 3 s
r 2 3 s
f 4 0 e
h 4 3 e
5 2

7 8
7
f 5 3 s
f 4 7 s
h 4 1 s
t 2 2 s
f 2 1 e
f 4 5 s
f 6 1 w
5 2
