*** Darwin 8x15 ***
Turn = 0.
  012345678901234
0 ...............
1 tr.............
2 .........t.....
3 ...............
4 f..............
5 ...............
6 ...............
7 .............t.

Turn = 6.
  012345678901234
0 .....r.........
1 t..............
2 .........t.....
3 ...............
4 f..............
5 ...............
6 ...............
7 .............t.

*** Darwin 14x14 ***
Turn = 0.
  01234567890123
0 ...r.........f
1 .........h....
2 .......h......
3 ...........f..
4 ..............
5 ..............
6 ..............
7 ....f.........
8 h.............
9 ........h.....
0 t.............
1 ..............
2 ..............
3 ..............

Turn = 1.
  01234567890123
0 ....r........f
1 ..............
2 ........hh....
3 ...........f..
4 ..............
5 ..............
6 ..............
7 ....f.........
8 h.............
9 .........h....
0 t.............
1 ..............
2 ..............
3 ..............

Turn = 2.
  01234567890123
0 .....r.......f
1 ..............
2 ........h.....
3 .........h.f..
4 ..............
5 ..............
6 ..............
7 ....f.........
8 h.............
9 ..........h...
0 t.............
1 ..............
2 ..............
3 ..............

Turn = 3.
  01234567890123
0 ......r......f
1 ..............
2 .........h....
3 ...........f..
4 .........h....
5 ..............
6 ..............
7 ....f.........
8 h.............
9 ...........h..
0 t.............
1 ..............
2 ..............
3 ..............

Turn = 4.
  01234567890123
0 .......r.....f
1 ..............
2 ..........h...
3 ...........f..
4 ..............
5 .........h....
6 ..............
7 ....f.........
8 h.............
9 ............h.
0 t.............
1 ..............
2 ..............
3 ..............

Turn = 5.
  01234567890123
0 ........r....f
1 ..............
2 ...........h..
3 ...........f..
4 ..............
5 ..............
6 .........h....
7 ....f.........
8 h.............
9 .............h
0 t.............
1 ..............
2 ..............
3 ..............

Turn = 6.
  01234567890123
0 .........r...f
1 ..............
2 ............h.
3 ...........f..
4 ..............
5 ..............
6 ..............
7 ....f....h....
8 h.............
9 .............h
0 t.............
1 ..............
2 ..............
3 ..............

Turn = 7.
  01234567890123
0 ..........r..f
1 ..............
2 .............h
3 ...........f..
4 ..............
5 ..............
6 ..............
7 ....f.........
8 h........h....
9 .............h
0 t.............
1 ..............
2 ..............
3 ..............

Turn = 8.
  01234567890123
0 ...........r.f
1 ..............
2 .............h
3 ...........f..
4 ..............
5 ..............
6 ..............
7 ....f.........
8 h.............
9 .........h...h
0 t.............
1 ..............
2 ..............
3 ..............

Turn = 9.
  01234567890123
0 ............rf
1 ..............
2 .............h
3 ...........f..
4 ..............
5 ..............
6 ..............
7 ....f.........
8 h.............
9 .............h
0 t........h....
1 ..............
2 ..............
3 ..............

Turn = 10.
  01234567890123
0 ............rr
1 ..............
2 .............h
3 ...........f..
4 ..............
5 ..............
6 ..............
7 ....f.........
8 h.............
9 .............h
0 t.............
1 .........h....
2 ..............
3 ..............

Turn = 11.
  01234567890123
0 ............r.
1 .............r
2 .............h
3 ...........f..
4 ..............
5 ..............
6 ..............
7 ....f.........
8 h.............
9 .............h
0 t.............
1 ..............
2 .........h....
3 ..............

Turn = 12.
  01234567890123
0 ............r.
1 .............r
2 .............r
3 ...........f..
4 ..............
5 ..............
6 ..............
7 ....f.........
8 h.............
9 .............h
0 t.............
1 ..............
2 ..............
3 .........h....

Turn = 13.
  01234567890123
0 .............r
1 .............r
2 ..............
3 ...........f.r
4 ..............
5 ..............
6 ..............
7 ....f.........
8 h.............
9 .............h
0 t.............
1 ..............
2 ..............
3 .........h....

Turn = 14.
  01234567890123
0 .............r
1 ............r.
2 ..............
3 ...........f..
4 .............r
5 ..............
6 ..............
7 ....f.........
8 h.............
9 .............h
0 t.............
1 ..............
2 ..............
3 .........h....

Turn = 15.
  01234567890123
0 ..............
1 ...........r.r
2 ..............
3 ...........f..
4 ..............
5 .............r
6 ..............
7 ....f.........
8 h.............
9 .............h
0 t.............
1 ..............
2 ..............
3 .........h....

*** Darwin 12x8 ***
Turn = 0.
  01234567
0 .r......
1 t.......
2 .r......
3 ...t....
4 ........
5 ........
6 ......f.
7 ........
8 ........
9 ........
0 ........
1 ........

Turn = 2.
  01234567
0 ........
1 t.......
2 .r.t....
3 ...t....
4 ........
5 ........
6 ......f.
7 ........
8 ........
9 ........
0 ........
1 ........

Turn = 4.
  01234567
0 ........
1 t.......
2 ...t....
3 ...t....
4 .r......
5 ........
6 ......f.
7 ........
8 ........
9 ........
0 ........
1 ........

Turn = 6.
  01234567
0 ........
1 t.......
2 ...t....
3 ...t....
4 ........
5 ........
6 .r....f.
7 ........
8 ........
9 ........
0 ........
1 ........

Turn = 8.
  01234567
0 ........
1 t.......
2 ...t....
3 ...t....
4 ........
5 ........
6 ......f.
7 ........
8 .r......
9 ........
0 ........
1 ........

*** Darwin 13x12 ***
Turn = 0.
  012345678901
0 ............
1 .h..r.......
2 .....f.r....
3 ...r........
4 ............
5 ............
6 ............
7 ............
8 .....f......
9 ..........r.
0 ............
1 ...........r
2 ............

Turn = 9.
  012345678901
0 r.r.....r...
1 ............
2 .....f......
3 ............
4 ............
5 ............
6 ............
7 ............
8 .....f......
9 ...........r
0 ............
1 .......r....
2 .....r......

*** Darwin 10x12 ***
Turn = 0.
  012345678901
0 ............
1 ............
2 .......h....
3 ............
4 .h..........
5 ..h.........
6 ....h.......
7 ............
8 ..........h.
9 tt..........

Turn = 2.
  012345678901
0 ............
1 ............
2 .h.......h..
3 ..h.........
4 ............
5 ............
6 ..h.........
7 ............
8 ............
9 tt........h.

*** Darwin 15x11 ***
Turn = 0.
  01234567890
0 .......h...
1 ....h......
2 ......t....
3 .......h.f.
4 .f......h..
5 ...........
6 ...........
7 ...........
8 ...........
9 ...........
0 ..........f
1 ...........
2 ...........
3 ...........
4 ...........

Turn = 3.
  01234567890
0 ..........h
1 ...........
2 ......t....
3 ....h....f.
4 .f..h.....h
5 ...........
6 ...........
7 ...........
8 ...........
9 ...........
0 ..........f
1 ...........
2 ...........
3 ...........
4 ...........

*** Darwin 15x11 ***
Turn = 0.
  01234567890
0 ..........h
1 r.h......t.
2 ...........
3 ...........
4 ...h.......
5 ...f...t...
6 ...........
7 ...........
8 .......f...
9 ...........
0 ...........
1 ...........
2 .r.........
3 ...........
4 ........f..

Turn = 4.
  01234567890
0 ..........h
1 ......h..t.
2 ...........
3 ...........
4 h..........
5 r..f...t...
6 ...........
7 ...........
8 .......f...
9 ...........
0 ...........
1 ...........
2 .....r.....
3 ...........
4 ........f..

*** Darwin 11x11 ***
Turn = 0.
  01234567890
0 ....t......
1 ...........
2 .........h.
3 ...........
4 ...........
5 .t.........
6 ....r......
7 ...........
8 ...........
9 ....r......
0 ...........

Turn = 4.
  01234567890
0 ....t......
1 ...........
2 ....r.....h
3 ...........
4 ...........
5 .t.........
6 ...........
7 ...........
8 ...........
9 r..........
0 ...........

Turn = 8.
  01234567890
0 ..r.r......
1 ...........
2 ..........h
3 ...........
4 ...........
5 .t.........
6 r..........
7 ...........
8 ...........
9 ...........
0 ...........

*** Darwin 9x10 ***
Turn = 0.
  0123456789
0 .r........
1 .......t.f
2 ..........
3 ........h.
4 .r........
5 .....f....
6 .....h....
7 .......f..
8 ..........

Turn = 11.
  0123456789
0 ...r.....r
1 .......t..
2 .........r
3 h.........
4 ..........
5 .....f....
6 h.........
7 .......f..
8 ..........

*** Darwin 8x13 ***
Turn = 0.
  0123456789012
0 r..r.........
1 .....t.......
2 ....t.....f..
3 .............
4 .............
5 .............
6 .....r..h....
7 ............t

Turn = 3.
  0123456789012
0 ...r..r......
1 .....t.......
2 ....t.....f..
3 ........h....
4 .............
5 .............
6 ........r....
7 ............t

Turn = 6.
  0123456789012
0 ......r.hr...
1 .....t.......
2 ....t.....f..
3 .............
4 .............
5 .............
6 ...........r.
7 ............t

*** Darwin 8x8 ***
Turn = 0.
  01234567
0 t.......
1 ........
2 ......f.
3 r.......
4 ......r.
5 ..f.....
6 ...tf...
7 ........

Turn = 8.
  01234567
0 t.......
1 ........
2 ......f.
3 r......r
4 ........
5 ..f.....
6 ...tt...
7 ........

*** Darwin 14x9 ***
Turn = 0.
  012345678
0 .........
1 .........
2 .........
3 .......r.
4 ..t......
5 .........
6 .........
7 .........
8 .........
9 .........
0 .........
1 .........
2 .........
3 .........

Turn = 10.
  012345678
0 .........
1 r........
2 .........
3 .........
4 ..t......
5 .........
6 .........
7 .........
8 .........
9 .........
0 .........
1 .........
2 .........
3 .........

*** Darwin 15x13 ***
Turn = 0.
  0123456789012
0 .............
1 .............
2 .............
3 .............
4 ...........t.
5 .............
6 .............
7 .............
8 .............
9 .............
0 .............
1 .............
2 .............
3 .t...........
4 .............

Turn = 3.
  0123456789012
0 .............
1 .............
2 .............
3 .............
4 ...........t.
5 .............
6 .............
7 .............
8 .............
9 .............
0 .............
1 .............
2 .............
3 .t...........
4 .............

Turn = 6.
  0123456789012
0 .............
1 .............
2 .............
3 .............
4 ...........t.
5 .............
6 .............
7 .............
8 .............
9 .............
0 .............
1 .............
2 .............
3 .t...........
4 .............

Turn = 9.
  0123456789012
0 .............
1 .............
2 .............
3 .............
4 ...........t.
5 .............
6 .............
7 .............
8 .............
9 .............
0 .............
1 .............
2 .............
3 .t...........
4 .............

Turn = 12.
  0123456789012
0 .............
1 .............
2 .............
3 .............
4 ...........t.
5 .............
6 .............
7 .............
8 .............
9 .............
0 .............
1 .............
2 .............
3 .t...........
4 .............

Turn = 15.
  0123456789012
0 .............
1 .............
2 .............
3 .............
4 ...........t.
5 .............
6 .............
7 .............
8 .............
9 .............
0 .............
1 .............
2 .............
3 .t...........
4 .............

Turn = 18.
  0123456789012
0 .............
1 .............
2 .............
3 .............
4 ...........t.
5 .............
6 .............
7 .............
8 .............
9 .............
0 .............
1 .............
2 .............
3 .t...........
4 .............

*** Darwin 11x12 ***
Turn = 0.
  012345678901
0 ........r...
1 ...........t
2 .h..........
3 ..........t.
4 h...........
5 .t...rt.....
6 ............
7 .....t......
8 ..........r.
9 ............
0 .........t..

Turn = 4.
  012345678901
0 .h.........t
1 ...........t
2 ............
3 ..........t.
4 h...........
5 .t......r...
6 ............
7 .....tt.....
8 ............
9 ............
0 .........t.r

*** Darwin 14x13 ***
Turn = 0.
  0123456789012
0 .............
1 .............
2 .............
3 .............
4 ........t....
5 .............
6 .............
7 ...........t.
8 .............
9 ....f........
0 .............
1 .............
2 f............
3 .............

Turn = 4.
  0123456789012
0 .............
1 .............
2 .............
3 .............
4 ........t....
5 .............
6 .............
7 ...........t.
8 .............
9 ....f........
0 .............
1 .............
2 f............
3 .............

*** Darwin 14x8 ***
Turn = 0.
  01234567
0 ........
1 ....f...
2 ........
3 ........
4 .....rt.
5 ........
6 ........
7 .......t
8 ...r....
9 ........
0 t..f....
1 ........
2 ........
3 ........

Turn = 3.
  01234567
0 ........
1 ....f.r.
2 ........
3 ........
4 .......r
5 ........
6 ........
7 .......t
8 r.......
9 ........
0 t..f....
1 ........
2 ........
3 ........

Turn = 6.
  01234567
0 .......r
1 ....f...
2 ........
3 ........
4 ........
5 ........
6 .......r
7 .......t
8 ........
9 r.......
0 ...f....
1 r.......
2 ........
3 ........

Turn = 9.
  01234567
0 ........
1 ....f...
2 .......r
3 ........
4 ........
5 ........
6 ......r.
7 ........
8 ........
9 .......r
0 ...f....
1 ........
2 r.......
3 r.......

*** Darwin 12x8 ***
Turn = 0.
  01234567
0 ........
1 ........
2 .......h
3 ..r...r.
4 ........
5 .h......
6 ........
7 r......f
8 ........
9 .....t..
0 ......f.
1 ........

Turn = 6.
  01234567
0 rh......
1 r.......
2 .h......
3 ........
4 ........
5 ........
6 ........
7 .......f
8 ........
9 .....tr.
0 ......f.
1 ........

*** Darwin 10x9 ***
Turn = 0.
  012345678
0 .r.......
1 ......t..
2 .........
3 .........
4 .........
5 ..t....t.
6 ......f..
7 .........
8 .........
9 ..f......

Turn = 1.
  012345678
0 ..r......
1 ......t..
2 .........
3 .........
4 .........
5 ..t....t.
6 ......f..
7 .........
8 .........
9 ..f......

Turn = 2.
  012345678
0 ...r.....
1 ......t..
2 .........
3 .........
4 .........
5 ..t....t.
6 ......f..
7 .........
8 .........
9 ..f......

*** Darwin 12x12 ***
Turn = 0.
  012345678901
0 ............
1 ...........h
2 ...........h
3 ..h........h
4 ......h.....
5 ............
6 ............
7 ........t...
8 ....h.......
9 ............
0 .......h.h..
1 .h..........

Turn = 3.
  012345678901
0 ............
1 ......h....h
2 ...........h
3 ...........h
4 ............
5 ....h.......
6 ..h.........
7 ........th..
8 .h..........
9 ............
0 ....h.......
1 ............

*** Darwin 10x9 ***
Turn = 0.
  012345678
0 ........t
1 .........
2 ........r
3 .........
4 r........
5 .........
6 .f.......
7 .........
8 ..rf...h.
9 .........

Turn = 5.
  012345678
0 r.....r..
1 .........
2 ........r
3 .........
4 .........
5 .........
6 rf.......
7 .........
8 ...f....h
9 .........

Turn = 10.
  012345678
0 ..r......
1 r..r.....
2 .........
3 .........
4 .........
5 .........
6 .f.......
7 ........r
8 ...f....h
9 .........

Turn = 15.
  012345678
0 .......r.
1 .........
2 r........
3 .........
4 .........
5 .........
6 .f.r.....
7 .....r...
8 ...f.....
9 ......r..

*** Darwin 11x8 ***
Turn = 0.
  01234567
0 ........
1 ........
2 ..r.....
3 ........
4 ....h...
5 ........
6 ........
7 ...t....
8 ....t...
9 .f...t..
0 .....t..

Turn = 2.
  01234567
0 ........
1 ........
2 ........
3 ........
4 ..rh....
5 ........
6 ........
7 ...t....
8 ....t...
9 .f...t..
0 .....t..

Turn = 4.
  01234567
0 ........
1 ........
2 ........
3 ........
4 .h......
5 ........
6 ..r.....
7 ...t....
8 ....t...
9 .f...t..
0 .....t..

*** Darwin 11x12 ***
Turn = 0.
  012345678901
0 ............
1 ............
2 ............
3 ............
4 ....rr......
5 ......h.....
6 ............
7 .f..........
8 .....f......
9 ............
0 ............

Turn = 3.
  012345678901
0 ............
1 ....r.......
2 ............
3 ............
4 ..r.........
5 ...h........
6 ............
7 .f..........
8 .....f......
9 ............
0 ............

Turn = 6.
  012345678901
0 .....r......
1 ............
2 ............
3 ............
4 r...........
5 h...........
6 ............
7 .f..........
8 .....f......
9 ............
0 ............

*** Darwin 11x13 ***
Turn = 0.
  0123456789012
0 .............
1 .............
2 .............
3 .h.f.........
4 ..h..........
5 .............
6 .............
7 .............
8 .............
9 .............
0 .............

Turn = 2.
  0123456789012
0 .............
1 .............
2 .............
3 ..hf.........
4 h............
5 .............
6 .............
7 .............
8 .............
9 .............
0 .............

Turn = 4.
  0123456789012
0 .............
1 .............
2 .............
3 ..hf.........
4 h............
5 .............
6 .............
7 .............
8 .............
9 .............
0 .............

Turn = 6.
  0123456789012
0 .............
1 .............
2 .............
3 ..hf.........
4 h............
5 .............
6 .............
7 .............
8 .............
9 .............
0 .............

Turn = 8.
  0123456789012
0 .............
1 .............
2 .............
3 ..hf.........
4 h............
5 .............
6 .............
7 .............
8 .............
9 .............
0 .............

Turn = 10.
  0123456789012
0 .............
1 .............
2 .............
3 ..hf.........
4 h............
5 .............
6 .............
7 .............
8 .............
9 .............
0 .............

Turn = 12.
  0123456789012
0 .............
1 .............
2 .............
3 ..hf.........
4 h............
5 .............
6 .............
7 .............
8 .............
9 .............
0 .............

*** Darwin 10x8 ***
Turn = 0.
  01234567
0 ...f....
1 ..r.....
2 .....r..
3 .......t
4 .....h..
5 ........
6 ........
7 ........
8 ......t.
9 ........

Turn = 3.
  01234567
0 ...f....
1 r.......
2 ..r.....
3 .......t
4 .......h
5 ........
6 ........
7 ........
8 ......t.
9 ........

Turn = 6.
  01234567
0 r..f....
1 ........
2 r.......
3 .......t
4 .......t
5 ........
6 ........
7 ........
8 ......t.
9 ........

*** Darwin 11x8 ***
Turn = 0.
  01234567
0 ........
1 ...t....
2 ........
3 ........
4 ........
5 ........
6 ........
7 ........
8 ..h.....
9 ........
0 ........

Turn = 5.
  01234567
0 ........
1 ...t....
2 ........
3 ........
4 ........
5 ........
6 ........
7 ........
8 ........
9 ........
0 ..h.....

Turn = 10.
  01234567
0 ........
1 ...t....
2 ........
3 ........
4 ........
5 ........
6 ........
7 ........
8 ........
9 ........
0 ..h.....
