21

4 13
13
r 2 8 e
h 3 8 w
f 2 4 s
h 3 3 e
f 0 0 e
h 3 10 n
t 1 10 e
t 0 7 s
t 3 4 e
h 2 7 e
r 1 0 s
t 1 4 e
t 3 5 w
23 6

24 3
4
r 4 1 s
h 9 0 w
f 22 0 e
h 6 2 w
20 10

15 22
13
h 6 14 s
h 11 14 w
f 6 7 n
f 5 11 e
r 7 19 s
h 9 3 e
t 7 20 s
f 14 4 w
h 6 18 s
r 2 20 w
h 1 17 n
r 13 0 w
t 9 14 n
3 2

12 11
2
r 10 9 n
f 11 4 w
18 16

15 23
6
t 7 6 w
t 0 1 n
h 0 4 w
f 4 21 e
h 12 5 w
h 12 19 w
17 5

17 10
4
f 11 2 s
t 12 7 w
t 11 6 s
h 4 4 e
14 13

22 17
9
t 1 9 w
f 4 5 e
h 7 9 e
r 18 12 s
r 1 13 n
t 13 7 s
t 10 9 e
f 4 11 w
h 12 12 e
35 11

22 10
15
h 6 1 e
r 13 9 w
h 0 6 s
t 10 4 n
f 8 6 e
f 14 8 w
h 9 7 e
r 15 5 s
f 15 8 e
f 16 6 w
f 7 0 e
t 8 1 s
f 20 5 e
r 6 2 w
h 11 5 w
20 2

15 24
11
h 7 3 s
f 12 10 e
h 4 18 e
f 11 18 w
r 9 8 w
t 0 12 n
r 2 20 w
h 1 3 w
t 7 0 s
t 6 8 s
h 14 19 n
29 13

16 1
1
r 14 0 e
8 6

13 22
4
t 3 7 n
h 11 2 w
r 6 14 w
h 1 14 w
13 2

8 16
11
r 3 8 s
f 6 3 s
t 7 6 n
r 7 1 n
h 3 12 w
r 0 2 e
r 2 5 e
t 4 13 s
t 3 10 w
h 5 13 w
t 3 0 n
31 6

17 8
6
h 9 1 e
h 13 5 w
h 4 4 n
h 8 6 w
f 11 7 n
f 5 6 s
27 3

18 8
6
r 8 4 s
h 5 3 e
h 13 1 e
r 8 3 e
f 3 5 e
t 17 5 n
29 9

19 5
14
f 18 3 n
f 6 1 n
h 11 3 n
t 9 2 w
h 18 4 e
t 10 2 n
h 6 0 e
t 15 1 n
h 1 4 w
h 16 0 e
t 7 2 e
f 8 4 n
f 12 1 s
r 0 1 w
34 13

8 12
3
f 0 7 e
h 0 9 n
r 3 2 e
21 3

18 19
3
h 4 13 n
f 16 7 s
t 14 17 e
12 4

8 25
11
r 1 23 s
t 7 18 n
r 3 10 s
h 5 12 e
f 1 10 n
r 3 14 s
r 4 23 s
t 6 21 n
t 2 12 e
h 4 9 s
t 0 14 e
10 2

2 22
10
t 0 15 n
h 0 2 e
h 0 20 e
r 1 9 e
f 0 21 e
t 1 6 s
f 0 1 s
t 1 19 w
h 0 11 w
h 0 14 n
49 30

7 8
5
r 2 6 w
r 3 6 e
f 0 4 n
r 2 1 e
t 6 2 n
49 7

14 6
9
h 13 0 e
r 6 5 n
f 8 5 s
r 11 3 n
t 1 1 e
h 10 2 n
h 5 2 n
t 2 4 e
f 2 5 w
36 11
