25

5 9
6
h 0 2 n
t 4 3 e
r 0 0 w
h 3 1 s
h 0 3 w
f 3 0 w
8 6

9 6
3
h 0 0 w
f 1 3 w
t 1 4 w
7 3

7 7
5
r 4 6 s
f 2 3 n
r 4 5 s
f 5 0 n
r 1 4 n
5 3

5 7
3
f 3 2 e
h 2 2 w
t 2 0 e
6 1

9 8
8
h 1 7 s
t 1 1 e
f 3 7 e
f 3 1 e
r 2 6 n
h 5 7 s
f 2 1 n
h 5 5 s
10 7

8 8
6
r 1 5 n
h 5 2 n
t 4 3 s
f 3 2 s
r 3 4 n
r 1 0 w
8 4

8 6
7
f 7 4 e
t 4 3 s
h 4 5 n
t 4 2 n
t 4 2 w
t 0 3 e
t 7 1 e
15 13

7 6
6
r 0 5 n
f 4 2 e
f 2 3 w
h 6 3 n
h 3 4 e
r 3 5 s
15 11

7 5
4
t 0 1 w
f 2 0 s
h 6 4 e
r 6 0 w
6 3

9 6
2
r 5 0 w
t 6 3 e
7 3

7 6
7
t 2 4 n
h 3 2 w
t 5 5 n
h 1 4 w
t 3 5 w
t 1 0 n
t 3 0 w
7 2

8 7
8
t 4 4 w
t 6 5 e
r 2 4 w
t 3 1 w
r 2 5 n
t 0 2 e
h 5 2 n
t 1 1 w
6 2

5 7
7
r 4 6 s
f 1 1 w
r 3 4 w
r 2 2 e
t 4 2 s
r 4 3 w
r 3 6 s
7 5

6 9
8
f 0 4 s
r 1 1 s
r 0 7 w
h 3 0 w
t 0 3 w
t 1 5 n
r 0 8 e
r 4 7 s
6 3

9 8
4
h 1 0 e
t 2 4 s
t 5 2 w
t 3 4 w
5 3

9 8
4
t 8 5 n
r 7 5 n
r 6 3 s
f 4 4 s
10 3

9 5
5
r 8 3 w
h 5 4 n
t 7 0 s
t 1 3 e
t 3 4 s
7 1

8 5
8
r 3 2 s
r 4 4 e
r 5 3 e
f 7 2 n
r 3 1 e
h 7 2 n
h 0 0 w
t 4 1 w
8 1

9 8
8
t 8 1 s
h 4 0 w
r 2 6 n
h 4 4 n
f 0 6 w
h 0 2 s
t 4 6 e
r 6 2 w
13 8

9 8
6
h 2 5 s
h 7 2 s
h 8 2 e
r 5 3 w
h 2 3 e
f 4 5 w
11 2

6 5
4
h 1 0 s
h 4 4 w
r 5 4 e
f 3 0 n
9 1

6 6
8
r 2 5 s
f 0 0 n
f 4 1 w
t 4 3 n
h 3 5 e
h 5 4 s
f 3 4 e
r 4 5 w
6 2

8 7
8
t 5 3 s
h 5 5 s
f 7 2 n
h 5 4 s
f 7 4 s
f 4 5 w
t 3 3 s
t 6 5 e
13 7

8 7
8
f 5 2 s
f 4 6 n
t 6 4 n
t 1 6 w
h 5 6 n
t 4 5 s
h 4 5 n
t 4 4 w
7 3

8 6
7
f 7 3 s
h 5 3 s
f 2 0 w
r 4 1 s
t 6 0 n
r 0 2 e
f 6 1 w
6 4
