20

2 2
4
f 0 1 n
h 1 0 n
r 0 0 n
t 1 1 n
10 1

8 12
10
r 7 1 n
f 0 0 e
r 3 10 e
t 5 5 e
t 5 6 e
t 6 5 s
h 2 3 w
h 1 9 e
f 4 1 s
r 4 2 w
100 17

32 2
3
f 0 0 n
h 21 0 w
t 15 0 e
10 2

31 31
26
r 7 1 n
t 0 0 e
r 3 10 e
t 5 5 e
t 15 6 e
r 6 5 s
h 2 3 w
h 1 9 e
f 4 1 s
r 4 2 w
f 17 30 n
h 21 0 w
t 15 0 e
r 1 7 n
t 30 30 e
r 10 3 e
t 25 25 e
t 6 15 e
r 16 5 s
h 3 2 w
h 9 1 e
f 1 4 s
r 2 4 w
f 29 29 n
h 13 2 w
t 0 21 e
123 21

18 18
20
r 7 1 n
t 0 0 e
r 3 10 e
t 5 5 e
t 15 6 e
r 6 5 s
h 2 3 w
h 1 9 e
f 4 1 s
r 4 2 w
f 17 3 n
h 1 0 w
t 15 0 e
r 1 7 n
t 3 3 e
r 10 3 e
t 17 17 e
t 6 15 e
r 16 5 s
h 3 2 w
71 8

10 10
15
r 7 1 n
t 0 0 e
r 3 1 e
t 5 5 e
t 1 6 e
t 2 5 e
t 6 5 e
r 6 5 s
h 3 2 w
h 9 1 e
f 1 4 s
r 2 4 w
f 9 2 n
h 1 2 w
t 0 1 e
100 10

8 8
5
r 1 4 n
t 2 2 e
h 1 1 s
h 7 7 s
r 4 2 e
10 2

12 1
12
f 0 0 n
f 1 0 n
f 2 0 n
f 3 0 n
f 4 0 n
f 5 0 n
f 6 0 n
f 7 0 n
f 8 0 n
f 9 0 n
f 10 0 n
t 11 0 n
20 1

2 2
4
f 0 0 n
t 1 1 e
r 0 1 s
h 1 0 e
5 1

40 40
5
h 21 0 w
t 15 0 e
r 1 7 n
t 30 30 e
r 10 3 e
7 1

3 3
2
f 0 0 n
r 2 2 e
10 1

20 12
5
f 0 0 e
r 3 10 e
t 5 5 e
t 15 0 e
r 1 7 n
40 4

34 15
7
r 7 1 n
t 0 0 e
r 3 10 e
t 5 5 e
t 15 6 e
r 6 5 s
h 2 3 w
10 2

4 4
16
f 0 0 n
f 1 0 n
f 2 0 n
f 3 0 n
f 0 1 n
f 1 1 n
f 2 1 n
f 3 1 n
f 0 2 n
f 1 2 n
f 2 2 n
f 3 2 n
f 0 3 n
f 1 3 n
f 2 3 n
r 3 3 n
20 1

100 100
2
f 0 0 n
r 99 99 e
100 10

5 5
5
f 0 0 n
f 2 3 n
f 4 4 n
f 1 2 n
r 2 2 e
10 1

9 3
6
r 7 2 e
r 1 2 n
r 4 2 s
r 2 2 s
r 6 0 w
f 4 1 n
6 1

2 2
4
f 0 0 n
t 1 1 e
r 0 1 s
r 1 0 w
4 1

8 8
2
r 0 0 n
r 7 7 w
10 1

2 4
1
r 0 0 n
100 1
