20

10 13
12
t 4 1 e
t 5 4 n
t 9 4 n
h 1 9 w
t 7 7 e
h 5 6 e
r 5 6 n
f 4 5 e
f 1 4 w
t 5 4 e
f 4 0 w
r 5 11 e
177 70

15 13
16
f 11 7 n
h 2 5 e
r 14 1 n
r 7 6 w
f 0 11 w
t 8 10 w
h 10 2 e
t 10 2 w
t 13 10 w
r 7 8 e
t 6 11 w
h 13 6 n
r 9 12 s
t 14 0 s
t 11 9 s
r 1 3 n
28 162

11 11
12
t 8 0 n
r 4 5 n
h 2 7 n
r 7 1 e
t 5 10 e
t 1 4 w
h 6 2 e
h 5 2 e
r 3 5 s
r 6 8 n
t 0 6 w
h 3 9 n
143 136

5 5
2
h 2 3 s
t 2 3 n
53 111

10 9
16
h 6 4 s
f 9 4 w
r 0 0 e
h 5 6 e
t 7 5 s
r 9 6 e
r 7 6 s
f 9 5 n
r 0 2 s
r 2 3 n
r 7 0 s
h 2 3 n
h 7 3 w
r 4 6 s
f 9 1 s
t 4 0 n
82 173

5 13
6
t 4 1 s
t 1 3 e
t 4 0 n
r 3 6 e
r 0 12 w
r 3 7 s
16 146

5 6
11
t 0 5 n
f 0 4 e
h 1 0 e
t 4 2 e
t 1 2 s
f 2 5 s
h 4 2 s
f 0 4 w
r 3 4 w
h 0 4 w
r 1 5 s
26 95

9 13
9
r 4 0 n
h 8 10 s
h 4 2 w
t 8 6 w
f 1 5 w
r 6 0 w
t 0 8 s
h 3 8 e
f 0 2 n
70 70

12 4
16
f 8 0 n
t 11 1 s
t 5 0 s
t 0 1 n
f 8 0 s
r 2 2 n
r 9 2 w
r 6 0 s
t 7 3 s
t 9 1 n
r 10 3 w
f 11 1 n
h 1 2 e
h 0 2 e
t 7 0 n
t 9 1 s
47 57

9 10
7
t 3 0 n
h 4 9 s
h 0 6 n
h 1 0 s
h 6 7 n
r 7 4 n
h 7 8 n
113 19

14 8
13
f 7 1 n
f 1 4 w
r 10 7 s
f 7 2 e
f 9 6 s
h 2 5 w
t 2 2 n
t 4 1 e
f 6 6 w
f 7 0 n
t 11 2 n
r 6 4 s
f 10 2 n
57 21

11 9
5
f 0 1 w
t 10 8 e
f 6 3 w
r 2 1 s
r 3 6 w
112 92

14 6
6
r 1 4 n
t 12 5 s
f 2 2 e
f 10 2 w
f 4 1 n
r 0 0 n
92 159

15 14
9
t 14 12 n
t 11 0 e
r 2 6 s
r 1 12 n
t 4 8 n
r 3 8 w
f 12 11 n
r 7 5 w
h 5 2 s
177 185

10 14
4
t 2 3 e
f 4 5 e
t 1 11 n
f 3 2 n
127 14

9 14
16
r 7 10 n
f 6 4 n
r 3 4 n
r 7 9 w
t 1 10 e
r 3 4 e
t 4 7 n
t 3 11 e
f 4 3 n
r 4 4 w
r 2 0 w
t 4 3 w
h 6 10 e
f 1 4 n
h 7 5 s
h 3 8 s
144 194

8 12
13
r 0 8 w
r 1 3 w
t 0 11 w
f 6 7 e
t 7 1 s
r 3 7 w
f 1 1 e
r 0 2 n
f 4 0 w
t 0 4 e
t 2 4 e
f 6 9 n
h 3 8 w
89 179

5 13
6
r 1 3 w
f 2 0 s
h 4 0 n
r 3 9 s
t 2 12 w
f 4 4 s
85 172

12 10
5
t 5 2 n
r 4 5 w
t 3 5 n
r 1 5 s
h 3 7 e
158 75

7 7
11
h 4 3 n
t 4 6 n
t 6 2 n
f 5 5 s
t 1 6 n
r 3 5 s
r 3 0 e
f 3 4 w
r 3 1 s
t 2 4 w
h 1 0 w
1 70
